\relax 
\@writefile{toc}{\contentsline {section}{\numberline {1}はじめに}{}}
\@writefile{toc}{\contentsline {section}{\numberline {2}Seq2Seq発話文生成モデル}{}}
\@writefile{toc}{\contentsline {section}{\numberline {3}提案手法}{}}
\@writefile{toc}{\contentsline {subsection}{\numberline {3.1}連想単語対の取得}{}}
\@writefile{toc}{\contentsline {subsection}{\numberline {3.2}連想発話対の取得}{}}
\@writefile{toc}{\contentsline {section}{\numberline {4}実験}{}}
\@writefile{toc}{\contentsline {subsection}{\numberline {4.1}実験設定}{}}
\bibstyle{jplain}
\@writefile{toc}{\contentsline {subsubsection}{\numberline {4.1.1}タスク1: 文の情報量}{}}
\@writefile{toc}{\contentsline {subsubsection}{\numberline {4.1.2}タスク2: 文の破綻率}{}}
\@writefile{toc}{\contentsline {subsubsection}{\numberline {4.1.3}タスク3: 会話の広がり}{}}
\@writefile{toc}{\contentsline {subsection}{\numberline {4.2}実験結果}{}}
\@writefile{toc}{\contentsline {subsubsection}{\numberline {4.2.1}タスク1: 文の情報量}{}}
\@writefile{toc}{\contentsline {subsubsection}{\numberline {4.2.2}タスク2: 文の破綻率}{}}
\@writefile{toc}{\contentsline {subsubsection}{\numberline {4.2.3}タスク3: 会話の広がり}{}}
\@writefile{toc}{\contentsline {section}{\numberline {5}おわりに}{}}
